logistic_regression
…
monthwise_test("Jan", "Day")

`summarise()` has grouped output by 'year', 'month'. You can override using the
`.groups` argument.

[[1]]
# A tibble: 37 × 5
    year month period  mean mean_ema
   <dbl> <ord> <chr>  <dbl>    <dbl>
 1  1979 Jan   Day        0        0
 2  1980 Jan   Day        0        0
 3  1981 Jan   Day        0        0
 4  1982 Jan   Day        0        0
 5  1983 Jan   Day        0        0
 6  1984 Jan   Day        0        0
 7  1985 Jan   Day        0        0
 8  1986 Jan   Day        0        0
 9  1987 Jan   Day        0        0
10  1988 Jan   Day        0        0
# ℹ 27 more rows
…
[[5]]
[[5]]$mean
[1] 5.175692e-05 6.032546e-07

[[5]]$variance
[1] 7.125528e-09 5.230504e-13

monthwise_test("Feb", "Day")

`summarise()` has grouped output by 'year', 'month'. You can override using the
`.groups` argument.

[[1]]
# A tibble: 38 × 5
    year month period  mean mean_ema
   <dbl> <ord> <chr>  <dbl>    <dbl>
 1  1979 Feb   Day        0        0
 2  1980 Feb   Day        0        0
 3  1981 Feb   Day        0        0
 4  1982 Feb   Day        0        0
 5  1983 Feb   Day        0        0
 6  1984 Feb   Day        0        0
 7  1985 Feb   Day        0        0
 8  1986 Feb   Day        0        0
 9  1987 Feb   Day        0        0
10  1988 Feb   Day        0        0
# ℹ 28 more rows
…
[[5]]
[[5]]$mean
[1] 0.0000000000 0.0002767242

[[5]]$variance
[1] 0.000000e+00 3.949226e-08

monthwise_test("Mar", "Day")

`summarise()` has grouped output by 'year', 'month'. You can override using the
`.groups` argument.

[[1]]
# A tibble: 40 × 5
    year month period     mean mean_ema
   <dbl> <ord> <chr>     <dbl>    <dbl>
 1  1979 Mar   Day    0.000159 0.000159
 2  1980 Mar   Day    0        0.000106
 3  1981 Mar   Day    0.00314  0.00112 
 4  1982 Mar   Day    0.00778  0.00334 
 5  1983 Mar   Day    0.000435 0.00237 
 6  1984 Mar   Day    0.118    0.0411  
 7  1985 Mar   Day    0.0138   0.0320  
 8  1986 Mar   Day    0        0.0213  
 9  1987 Mar   Day    0.0369   0.0265  
10  1988 Mar   Day    0        0.0177  
# ℹ 30 more rows
…
[[5]]
[[5]]$mean
[1] 0.02419907

[[5]]$variance
[1] 0.0003142598

monthwise_test("Apr", "Day")

`summarise()` has grouped output by 'year', 'month'. You can override using the
`.groups` argument.

[[1]]
# A tibble: 40 × 5
    year month period  mean mean_ema
   <dbl> <ord> <chr>  <dbl>    <dbl>
 1  1979 Apr   Day    0.184    0.184
 2  1980 Apr   Day    0.268    0.212
 3  1981 Apr   Day    0.355    0.260
 4  1982 Apr   Day    0.140    0.220
 5  1983 Apr   Day    0.151    0.197
 6  1984 Apr   Day    0.192    0.195
 7  1985 Apr   Day    0.338    0.243
 8  1986 Apr   Day    0.118    0.201
 9  1987 Apr   Day    0.138    0.180
10  1988 Apr   Day    0.176    0.179
# ℹ 30 more rows
…
[[5]]
[[5]]$mean
[1] 0.1873154 0.2547889

[[5]]$variance
[1] 0.001046581 0.002431502

monthwise_test("May", "Day")

`summarise()` has grouped output by 'year', 'month'. You can override using the
`.groups` argument.

[[1]]
# A tibble: 40 × 5
    year month period  mean mean_ema
   <dbl> <ord> <chr>  <dbl>    <dbl>
 1  1979 May   Day    0.806    0.806
 2  1980 May   Day    0.696    0.770
 3  1981 May   Day    0.716    0.752
 4  1982 May   Day    0.641    0.715
 5  1983 May   Day    0.625    0.685
 6  1984 May   Day    0.782    0.717
 7  1985 May   Day    0.737    0.724
 8  1986 May   Day    0.561    0.670
 9  1987 May   Day    0.504    0.614
10  1988 May   Day    0.789    0.673
# ℹ 30 more rows
…
[[5]]
[[5]]$mean
[1] 0.7221465

[[5]]$variance
[1] 0.001301978

monthwise_test("Jun", "Day")

`summarise()` has grouped output by 'year', 'month'. You can override using the
`.groups` argument.

[[1]]
# A tibble: 40 × 5
    year month period  mean mean_ema
   <dbl> <ord> <chr>  <dbl>    <dbl>
 1  1979 Jun   Day    0.925    0.925
 2  1980 Jun   Day    0.924    0.924
 3  1981 Jun   Day    0.926    0.925
 4  1982 Jun   Day    0.895    0.915
 5  1983 Jun   Day    0.843    0.891
 6  1984 Jun   Day    0.960    0.914
 7  1985 Jun   Day    0.889    0.905
 8  1986 Jun   Day    0.358    0.723
 9  1987 Jun   Day    0.878    0.775
10  1988 Jun   Day    0.878    0.809
# ℹ 30 more rows
…
[[5]]
[[5]]$mean
[1] 0.8768385 0.9212176

[[5]]$variance
[1] 2.780797e-03 2.985449e-05

monthwise_test("Jul", "Day")

`summarise()` has grouped output by 'year', 'month'. You can override using the
`.groups` argument.

[[1]]
# A tibble: 40 × 5
    year month period  mean mean_ema
   <dbl> <ord> <chr>  <dbl>    <dbl>
 1  1979 Jul   Day    0.972    0.972
 2  1980 Jul   Day    0.987    0.977
 3  1981 Jul   Day    0.987    0.980
 4  1982 Jul   Day    0.980    0.980
 5  1983 Jul   Day    0.944    0.968
 6  1984 Jul   Day    0.980    0.972
 7  1985 Jul   Day    0.950    0.965
 8  1986 Jul   Day    0.334    0.754
 9  1987 Jul   Day    0.964    0.824
10  1988 Jul   Day    0.986    0.878
# ℹ 30 more rows
…
[[5]]
[[5]]$mean
[1] 0.9293460 0.9752049

[[5]]$variance
[1] 4.244757e-03 3.879712e-05

monthwise_test("Aug", "Day")

`summarise()` has grouped output by 'year', 'month'. You can override using the
`.groups` argument.

[[1]]
# A tibble: 40 × 5
    year month period  mean mean_ema
   <dbl> <ord> <chr>  <dbl>    <dbl>
 1  1979 Aug   Day    0.941    0.941
 2  1980 Aug   Day    0.975    0.952
 3  1981 Aug   Day    0.968    0.957
 4  1982 Aug   Day    0.976    0.964
 5  1983 Aug   Day    0.950    0.959
 6  1984 Aug   Day    0.923    0.947
 7  1985 Aug   Day    0.982    0.959
 8  1986 Aug   Day    0.958    0.959
 9  1987 Aug   Day    0.919    0.945
10  1988 Aug   Day    0.976    0.956
# ℹ 30 more rows
…
[[5]]
[[5]]$mean
[1] 0.9556842 0.9750562

[[5]]$variance
[1] 4.765227e-05 4.031308e-05

monthwise_test("Sep", "Day")

`summarise()` has grouped output by 'year', 'month'. You can override using the
`.groups` argument.

[[1]]
# A tibble: 40 × 5
    year month period  mean mean_ema
   <dbl> <ord> <chr>  <dbl>    <dbl>
 1  1979 Sep   Day    0.892    0.892
 2  1980 Sep   Day    0.939    0.908
 3  1981 Sep   Day    0.918    0.911
 4  1982 Sep   Day    0.891    0.905
 5  1983 Sep   Day    0.930    0.913
 6  1984 Sep   Day    0.930    0.919
 7  1985 Sep   Day    0.908    0.915
 8  1986 Sep   Day    0.878    0.903
 9  1987 Sep   Day    0.901    0.902
10  1988 Sep   Day    0.907    0.904
# ℹ 30 more rows
…
[[5]]
[[5]]$mean
[1] 0.9159204

[[5]]$variance
[1] 9.816127e-05

monthwise_test("Oct", "Day")

`summarise()` has grouped output by 'year', 'month'. You can override using the
`.groups` argument.

[[1]]
# A tibble: 39 × 5
    year month period  mean mean_ema
   <dbl> <ord> <chr>  <dbl>    <dbl>
 1  1979 Oct   Day    0.433    0.433
 2  1980 Oct   Day    0.320    0.395
 3  1981 Oct   Day    0.606    0.466
 4  1982 Oct   Day    0.187    0.373
 5  1983 Oct   Day    0.577    0.441
 6  1984 Oct   Day    0.692    0.525
 7  1985 Oct   Day    0.448    0.499
 8  1986 Oct   Day    0.197    0.398
 9  1987 Oct   Day    0.341    0.379
10  1988 Oct   Day    0.443    0.400
# ℹ 29 more rows
…
[[5]]
[[5]]$mean
[1] 0.4277332 0.5304438

[[5]]$variance
[1] 0.002212934 0.003532080

monthwise_test("Nov", "Day")

`summarise()` has grouped output by 'year', 'month'. You can override using the
`.groups` argument.

[[1]]
# A tibble: 33 × 5
    year month period     mean mean_ema
   <dbl> <ord> <chr>     <dbl>    <dbl>
 1  1979 Nov   Day    0.0268    0.0268 
 2  1980 Nov   Day    0.0120    0.0218 
 3  1981 Nov   Day    0.0193    0.0210 
 4  1982 Nov   Day    0.00637   0.0161 
 5  1983 Nov   Day    0.000333  0.0109 
 6  1984 Nov   Day    0         0.00724
 7  1985 Nov   Day    0.0210    0.0118 
 8  1986 Nov   Day    0.0129    0.0122 
 9  1987 Nov   Day    0         0.00812
10  1988 Nov   Day    0         0.00541
# ℹ 23 more rows
…
[[5]]
[[5]]$mean
[1] 0.01422831 0.09318854

[[5]]$variance
[1] 7.172363e-05 8.417790e-04

monthwise_test("Dec", "Day")

`summarise()` has grouped output by 'year', 'month'. You can override using the
`.groups` argument.

[[1]]
# A tibble: 36 × 5
    year month period     mean  mean_ema
   <dbl> <ord> <chr>     <dbl>     <dbl>
 1  1979 Dec   Day    0        0        
 2  1980 Dec   Day    0        0        
 3  1981 Dec   Day    0        0        
 4  1982 Dec   Day    0        0        
 5  1983 Dec   Day    0        0        
 6  1984 Dec   Day    0.000638 0.000213 
 7  1985 Dec   Day    0        0.000142 
 8  1986 Dec   Day    0        0.0000946
 9  1987 Dec   Day    0        0.0000630
10  1988 Dec   Day    0        0.0000420
# ℹ 26 more rows
…
[[5]]
[[5]]$mean
[1] 3.347955e-05 5.321244e-04

[[5]]$variance
[1] 3.167745e-09 4.906163e-07

monthwise_test("Jan", "Night")

`summarise()` has grouped output by 'year', 'month'. You can override using the
`.groups` argument.

[[1]]
# A tibble: 37 × 5
    year month period  mean mean_ema
   <dbl> <ord> <chr>  <dbl>    <dbl>
 1  1979 Jan   Night      0        0
 2  1980 Jan   Night      0        0
 3  1981 Jan   Night      0        0
 4  1982 Jan   Night      0        0
 5  1983 Jan   Night      0        0
 6  1984 Jan   Night      0        0
 7  1985 Jan   Night      0        0
 8  1986 Jan   Night      0        0
 9  1987 Jan   Night      0        0
10  1988 Jan   Night      0        0
# ℹ 27 more rows
…
[[5]]
[[5]]$mean
[1] 0

[[5]]$variance
[1] 0

monthwise_test("Feb", "Night")

`summarise()` has grouped output by 'year', 'month'. You can override using the
`.groups` argument.

[[1]]
# A tibble: 38 × 5
    year month period  mean mean_ema
   <dbl> <ord> <chr>  <dbl>    <dbl>
 1  1979 Feb   Night      0        0
 2  1980 Feb   Night      0        0
 3  1981 Feb   Night      0        0
 4  1982 Feb   Night      0        0
 5  1983 Feb   Night      0        0
 6  1984 Feb   Night      0        0
 7  1985 Feb   Night      0        0
 8  1986 Feb   Night      0        0
 9  1987 Feb   Night      0        0
10  1988 Feb   Night      0        0
# ℹ 28 more rows
…
[[5]]
[[5]]$mean
[1] 0

[[5]]$variance
[1] 0

monthwise_test("Mar", "Night")

`summarise()` has grouped output by 'year', 'month'. You can override using the
`.groups` argument.

[[1]]
# A tibble: 40 × 5
    year month period     mean  mean_ema
   <dbl> <ord> <chr>     <dbl>     <dbl>
 1  1979 Mar   Night  0        0        
 2  1980 Mar   Night  0        0        
 3  1981 Mar   Night  0        0        
 4  1982 Mar   Night  0        0        
 5  1983 Mar   Night  0        0        
 6  1984 Mar   Night  0.000263 0.0000877
 7  1985 Mar   Night  0        0.0000585
 8  1986 Mar   Night  0        0.0000390
 9  1987 Mar   Night  0        0.0000260
10  1988 Mar   Night  0        0.0000173
# ℹ 30 more rows
…
[[5]]
[[5]]$mean
[1] 2.592732e-05 2.678801e-04

[[5]]$variance
[1] 7.373442e-10 9.801105e-08

monthwise_test("Apr", "Night")

`summarise()` has grouped output by 'year', 'month'. You can override using the
`.groups` argument.

[[1]]
# A tibble: 40 × 5
    year month period      mean mean_ema
   <dbl> <ord> <chr>      <dbl>    <dbl>
 1  1979 Apr   Night  0.00506    0.00506
 2  1980 Apr   Night  0.00328    0.00447
 3  1981 Apr   Night  0.00351    0.00415
 4  1982 Apr   Night  0          0.00277
 5  1983 Apr   Night  0.00108    0.00220
 6  1984 Apr   Night  0.000882   0.00176
 7  1985 Apr   Night  0.00909    0.00421
 8  1986 Apr   Night  0.000167   0.00286
 9  1987 Apr   Night  0.0000662  0.00193
10  1988 Apr   Night  0.00112    0.00166
# ℹ 30 more rows
…
[[5]]
[[5]]$mean
[1] 0.002774721 0.005194864

[[5]]$variance
[1] 1.276670e-06 3.917176e-06

monthwise_test("May", "Night")

`summarise()` has grouped output by 'year', 'month'. You can override using the
`.groups` argument.

[[1]]
# A tibble: 40 × 5
    year month period   mean mean_ema
   <dbl> <ord> <chr>   <dbl>    <dbl>
 1  1979 May   Night  0.222     0.222
 2  1980 May   Night  0.0973    0.181
 3  1981 May   Night  0.147     0.169
 4  1982 May   Night  0.0366    0.125
 5  1983 May   Night  0.0676    0.106
 6  1984 May   Night  0.311     0.174
 7  1985 May   Night  0.139     0.163
 8  1986 May   Night  0.0160    0.114
 9  1987 May   Night  0.0996    0.109
10  1988 May   Night  0.222     0.147
# ℹ 30 more rows
…
[[5]]
[[5]]$mean
[1] 0.1611015 0.2188621

[[5]]$variance
[1] 0.001101112 0.001231344

monthwise_test("Jun", "Night")

`summarise()` has grouped output by 'year', 'month'. You can override using the
`.groups` argument.

[[1]]
# A tibble: 40 × 5
    year month period  mean mean_ema
   <dbl> <ord> <chr>  <dbl>    <dbl>
 1  1979 Jun   Night  0.778    0.778
 2  1980 Jun   Night  0.835    0.797
 3  1981 Jun   Night  0.771    0.788
 4  1982 Jun   Night  0.698    0.758
 5  1983 Jun   Night  0.536    0.684
 6  1984 Jun   Night  0.877    0.749
 7  1985 Jun   Night  0.660    0.719
 8  1986 Jun   Night  0.172    0.537
 9  1987 Jun   Night  0.648    0.574
10  1988 Jun   Night  0.631    0.593
# ℹ 30 more rows
…
[[5]]
[[5]]$mean
[1] 0.6907840 0.7651868

[[5]]$variance
[1] 0.0059388573 0.0006421996

monthwise_test("Jul", "Night")

`summarise()` has grouped output by 'year', 'month'. You can override using the
`.groups` argument.

[[1]]
# A tibble: 40 × 5
    year month period  mean mean_ema
   <dbl> <ord> <chr>  <dbl>    <dbl>
 1  1979 Jul   Night  0.952    0.952
 2  1980 Jul   Night  0.978    0.961
 3  1981 Jul   Night  0.981    0.968
 4  1982 Jul   Night  0.968    0.968
 5  1983 Jul   Night  0.890    0.942
 6  1984 Jul   Night  0.961    0.948
 7  1985 Jul   Night  0.887    0.928
 8  1986 Jul   Night  0.207    0.688
 9  1987 Jul   Night  0.944    0.773
10  1988 Jul   Night  0.980    0.842
# ℹ 30 more rows
…
[[5]]
[[5]]$mean
[1] 0.8986298 0.9571095

[[5]]$variance
[1] 0.006193057 0.000177692

monthwise_test("Aug", "Night")

`summarise()` has grouped output by 'year', 'month'. You can override using the
`.groups` argument.

[[1]]
# A tibble: 40 × 5
    year month period  mean mean_ema
   <dbl> <ord> <chr>  <dbl>    <dbl>
 1  1979 Aug   Night  0.858    0.858
 2  1980 Aug   Night  0.943    0.887
 3  1981 Aug   Night  0.945    0.906
 4  1982 Aug   Night  0.956    0.923
 5  1983 Aug   Night  0.894    0.913
 6  1984 Aug   Night  0.780    0.869
 7  1985 Aug   Night  0.957    0.898
 8  1986 Aug   Night  0.892    0.896
 9  1987 Aug   Night  0.826    0.873
10  1988 Aug   Night  0.950    0.898
# ℹ 30 more rows
…
[[5]]
[[5]]$mean
[1] 0.9079254 0.9527947

[[5]]$variance
[1] 0.0004710678 0.0001967934

monthwise_test("Sep", "Night")

`summarise()` has grouped output by 'year', 'month'. You can override using the
`.groups` argument.

[[1]]
# A tibble: 40 × 5
    year month period  mean mean_ema
   <dbl> <ord> <chr>  <dbl>    <dbl>
 1  1979 Sep   Night  0.600    0.600
 2  1980 Sep   Night  0.708    0.636
 3  1981 Sep   Night  0.564    0.612
 4  1982 Sep   Night  0.514    0.579
 5  1983 Sep   Night  0.799    0.652
 6  1984 Sep   Night  0.703    0.669
 7  1985 Sep   Night  0.624    0.654
 8  1986 Sep   Night  0.491    0.600
 9  1987 Sep   Night  0.665    0.622
10  1988 Sep   Night  0.681    0.641
# ℹ 30 more rows
…
[[5]]
[[5]]$mean
[1] 0.6587073

[[5]]$variance
[1] 0.00133305

monthwise_test("Oct", "Night")

`summarise()` has grouped output by 'year', 'month'. You can override using the
`.groups` argument.

[[1]]
# A tibble: 40 × 5
    year month period     mean mean_ema
   <dbl> <ord> <chr>     <dbl>    <dbl>
 1  1979 Oct   Night  0.0770     0.0770
 2  1980 Oct   Night  0.000563   0.0515
 3  1981 Oct   Night  0.0318     0.0450
 4  1982 Oct   Night  0.000154   0.0300
 5  1983 Oct   Night  0.0668     0.0423
 6  1984 Oct   Night  0.0483     0.0443
 7  1985 Oct   Night  0.0418     0.0435
 8  1986 Oct   Night  0.00423    0.0304
 9  1987 Oct   Night  0.0177     0.0262
10  1988 Oct   Night  0.0429     0.0318
# ℹ 30 more rows
…
[[5]]
[[5]]$mean
[1] 0.0437565 0.1021342

[[5]]$variance
[1] 0.0001488208 0.0021234646

monthwise_test("Nov", "Night")

`summarise()` has grouped output by 'year', 'month'. You can override using the
`.groups` argument.

[[1]]
# A tibble: 31 × 5
    year month period  mean mean_ema
   <dbl> <ord> <chr>  <dbl>    <dbl>
 1  1979 Nov   Night      0        0
 2  1980 Nov   Night      0        0
 3  1981 Nov   Night      0        0
 4  1982 Nov   Night      0        0
 5  1983 Nov   Night      0        0
 6  1984 Nov   Night      0        0
 7  1985 Nov   Night      0        0
 8  1986 Nov   Night      0        0
 9  1988 Nov   Night      0        0
10  1989 Nov   Night      0        0
# ℹ 21 more rows
…
[[5]]
[[5]]$mean
[1] 0.000000e+00 4.501882e-05

[[5]]$variance
[1] 0.000000e+00 7.645748e-10

monthwise_test("Dec", "Night")

`summarise()` has grouped output by 'year', 'month'. You can override using the
`.groups` argument.

[[1]]
# A tibble: 33 × 5
    year month period  mean mean_ema
   <dbl> <ord> <chr>  <dbl>    <dbl>
 1  1979 Dec   Night      0        0
 2  1980 Dec   Night      0        0
 3  1981 Dec   Night      0        0
 4  1982 Dec   Night      0        0
 5  1983 Dec   Night      0        0
 6  1984 Dec   Night      0        0
 7  1985 Dec   Night      0        0
 8  1986 Dec   Night      0        0
 9  1987 Dec   Night      0        0
10  1988 Dec   Night      0        0
# ℹ 23 more rows
…
